%YAML 1.1
%TAG !u! tag:unity3d.com,2011:
--- !u!29 &1
OcclusionCullingSettings:
  m_ObjectHideFlags: 0
  serializedVersion: 2
  m_OcclusionBakeSettings:
    smallestOccluder: 5
    smallestHole: 0.25
    backfaceThreshold: 100
  m_SceneGUID: 00000000000000000000000000000000
  m_OcclusionCullingData: {fileID: 0}
--- !u!104 &2
RenderSettings:
  m_ObjectHideFlags: 0
  serializedVersion: 9
  m_Fog: 0
  m_FogColor: {r: 0.5, g: 0.5, b: 0.5, a: 1}
  m_FogMode: 3
  m_FogDensity: 0.01
  m_LinearFogStart: 0
  m_LinearFogEnd: 300
  m_AmbientSkyColor: {r: 0.212, g: 0.227, b: 0.259, a: 1}
  m_AmbientEquatorColor: {r: 0.114, g: 0.125, b: 0.133, a: 1}
  m_AmbientGroundColor: {r: 0.047, g: 0.043, b: 0.035, a: 1}
  m_AmbientIntensity: 1
  m_AmbientMode: 0
  m_SubtractiveShadowColor: {r: 0.42, g: 0.478, b: 0.627, a: 1}
  m_SkyboxMaterial: {fileID: 10304, guid: 0000000000000000f000000000000000, type: 0}
  m_HaloStrength: 0.5
  m_FlareStrength: 1
  m_FlareFadeSpeed: 3
  m_HaloTexture: {fileID: 0}
  m_SpotCookie: {fileID: 10001, guid: 0000000000000000e000000000000000, type: 0}
  m_DefaultReflectionMode: 0
  m_DefaultReflectionResolution: 128
  m_ReflectionBounces: 1
  m_ReflectionIntensity: 1
  m_CustomReflection: {fileID: 0}
  m_Sun: {fileID: 0}
  m_IndirectSpecularColor: {r: 0.44657898, g: 0.4964133, b: 0.5748178, a: 1}
  m_UseRadianceAmbientProbe: 0
--- !u!157 &3
LightmapSettings:
  m_ObjectHideFlags: 0
  serializedVersion: 12
  m_GIWorkflowMode: 0
  m_GISettings:
    serializedVersion: 2
    m_BounceScale: 1
    m_IndirectOutputScale: 1
    m_AlbedoBoost: 1
    m_EnvironmentLightingMode: 0
    m_EnableBakedLightmaps: 1
    m_EnableRealtimeLightmaps: 1
  m_LightmapEditorSettings:
    serializedVersion: 12
    m_Resolution: 2
    m_BakeResolution: 40
    m_AtlasSize: 1024
    m_AO: 0
    m_AOMaxDistance: 1
    m_CompAOExponent: 1
    m_CompAOExponentDirect: 0
    m_ExtractAmbientOcclusion: 0
    m_Padding: 2
    m_LightmapParameters: {fileID: 0}
    m_LightmapsBakeMode: 1
    m_TextureCompression: 1
    m_FinalGather: 0
    m_FinalGatherFiltering: 1
    m_FinalGatherRayCount: 256
    m_ReflectionCompression: 2
    m_MixedBakeMode: 2
    m_BakeBackend: 0
    m_PVRSampling: 1
    m_PVRDirectSampleCount: 32
    m_PVRSampleCount: 500
    m_PVRBounces: 2
    m_PVREnvironmentSampleCount: 500
    m_PVREnvironmentReferencePointCount: 2048
    m_PVRFilteringMode: 2
    m_PVRDenoiserTypeDirect: 0
    m_PVRDenoiserTypeIndirect: 0
    m_PVRDenoiserTypeAO: 0
    m_PVRFilterTypeDirect: 0
    m_PVRFilterTypeIndirect: 0
    m_PVRFilterTypeAO: 0
    m_PVREnvironmentMIS: 0
    m_PVRCulling: 1
    m_PVRFilteringGaussRadiusDirect: 1
    m_PVRFilteringGaussRadiusIndirect: 5
    m_PVRFilteringGaussRadiusAO: 2
    m_PVRFilteringAtrousPositionSigmaDirect: 0.5
    m_PVRFilteringAtrousPositionSigmaIndirect: 2
    m_PVRFilteringAtrousPositionSigmaAO: 1
    m_ExportTrainingData: 0
    m_TrainingDataDestination: TrainingData
    m_LightProbeSampleCountMultiplier: 4
  m_LightingDataAsset: {fileID: 0}
  m_LightingSettings: {fileID: 4890085278179872738, guid: 54d4ad3ac0ba6ba4686e547771a6c1cb, type: 2}
--- !u!196 &4
NavMeshSettings:
  serializedVersion: 2
  m_ObjectHideFlags: 0
  m_BuildSettings:
    serializedVersion: 2
    agentTypeID: 0
    agentRadius: 0.5
    agentHeight: 2
    agentSlope: 45
    agentClimb: 0.4
    ledgeDropHeight: 0
    maxJumpAcrossDistance: 0
    minRegionArea: 2
    manualCellSize: 0
    cellSize: 0.16666667
    manualTileSize: 0
    tileSize: 256
    accuratePlacement: 0
    maxJobWorkers: 0
    preserveTilesOutsideBounds: 0
    debug:
      m_Flags: 0
  m_NavMeshData: {fileID: 0}
--- !u!1 &113882285
GameObject:
  m_ObjectHideFlags: 0
  m_CorrespondingSourceObject: {fileID: 0}
  m_PrefabInstance: {fileID: 0}
  m_PrefabAsset: {fileID: 0}
  serializedVersion: 6
  m_Component:
  - component: {fileID: 113882289}
  - component: {fileID: 113882288}
  - component: {fileID: 113882287}
  - component: {fileID: 113882286}
  - component: {fileID: 113882290}
  m_Layer: 0
  m_Name: Cesped
  m_TagString: Untagged
  m_Icon: {fileID: 0}
  m_NavMeshLayer: 0
  m_StaticEditorFlags: 0
  m_IsActive: 1
--- !u!64 &113882286
MeshCollider:
  m_ObjectHideFlags: 0
  m_CorrespondingSourceObject: {fileID: 0}
  m_PrefabInstance: {fileID: 0}
  m_PrefabAsset: {fileID: 0}
  m_GameObject: {fileID: 113882285}
  m_Material: {fileID: 0}
  m_IsTrigger: 0
  m_Enabled: 1
  serializedVersion: 4
  m_Convex: 0
  m_CookingOptions: 30
  m_Mesh: {fileID: 10209, guid: 0000000000000000e000000000000000, type: 0}
--- !u!23 &113882287
MeshRenderer:
  m_ObjectHideFlags: 0
  m_CorrespondingSourceObject: {fileID: 0}
  m_PrefabInstance: {fileID: 0}
  m_PrefabAsset: {fileID: 0}
  m_GameObject: {fileID: 113882285}
  m_Enabled: 1
  m_CastShadows: 1
  m_ReceiveShadows: 1
  m_DynamicOccludee: 1
  m_MotionVectors: 1
  m_LightProbeUsage: 1
  m_ReflectionProbeUsage: 1
  m_RayTracingMode: 2
  m_RayTraceProcedural: 0
  m_RenderingLayerMask: 1
  m_RendererPriority: 0
  m_Materials:
  - {fileID: 2100000, guid: d24c35ddcc53ac64a87c72eb28e9aa0f, type: 2}
  m_StaticBatchInfo:
    firstSubMesh: 0
    subMeshCount: 0
  m_StaticBatchRoot: {fileID: 0}
  m_ProbeAnchor: {fileID: 0}
  m_LightProbeVolumeOverride: {fileID: 0}
  m_ScaleInLightmap: 1
  m_ReceiveGI: 1
  m_PreserveUVs: 0
  m_IgnoreNormalsForChartDetection: 0
  m_ImportantGI: 0
  m_StitchLightmapSeams: 1
  m_SelectedEditorRenderState: 3
  m_MinimumChartSize: 4
  m_AutoUVMaxDistance: 0.5
  m_AutoUVMaxAngle: 89
  m_LightmapParameters: {fileID: 0}
  m_SortingLayerID: 0
  m_SortingLayer: 0
  m_SortingOrder: 0
  m_AdditionalVertexStreams: {fileID: 0}
--- !u!33 &113882288
MeshFilter:
  m_ObjectHideFlags: 0
  m_CorrespondingSourceObject: {fileID: 0}
  m_PrefabInstance: {fileID: 0}
  m_PrefabAsset: {fileID: 0}
  m_GameObject: {fileID: 113882285}
  m_Mesh: {fileID: 10209, guid: 0000000000000000e000000000000000, type: 0}
--- !u!4 &113882289
Transform:
  m_ObjectHideFlags: 0
  m_CorrespondingSourceObject: {fileID: 0}
  m_PrefabInstance: {fileID: 0}
  m_PrefabAsset: {fileID: 0}
  m_GameObject: {fileID: 113882285}
  m_LocalRotation: {x: 0, y: 0.7071068, z: 0, w: 0.7071068}
  m_LocalPosition: {x: -110, y: -1.5, z: 26}
  m_LocalScale: {x: 35, y: 1, z: 35}
  m_Children: []
  m_Father: {fileID: 0}
  m_RootOrder: 8
  m_LocalEulerAnglesHint: {x: 0, y: 90, z: 0}
--- !u!65 &113882290
BoxCollider:
  m_ObjectHideFlags: 0
  m_CorrespondingSourceObject: {fileID: 0}
  m_PrefabInstance: {fileID: 0}
  m_PrefabAsset: {fileID: 0}
  m_GameObject: {fileID: 113882285}
  m_Material: {fileID: 0}
  m_IsTrigger: 0
  m_Enabled: 1
  serializedVersion: 2
  m_Size: {x: 10.000002, y: 2.220446e-16, z: 10.000002}
  m_Center: {x: 0, y: 0, z: 0}
--- !u!1 &230348567
GameObject:
  m_ObjectHideFlags: 0
  m_CorrespondingSourceObject: {fileID: 0}
  m_PrefabInstance: {fileID: 0}
  m_PrefabAsset: {fileID: 0}
  serializedVersion: 6
  m_Component:
  - component: {fileID: 230348572}
  - component: {fileID: 230348571}
  - component: {fileID: 230348569}
  - component: {fileID: 230348568}
  m_Layer: 0
  m_Name: Main Camera
  m_TagString: MainCamera
  m_Icon: {fileID: 0}
  m_NavMeshLayer: 0
  m_StaticEditorFlags: 0
  m_IsActive: 1
--- !u!81 &230348568
AudioListener:
  m_ObjectHideFlags: 0
  m_CorrespondingSourceObject: {fileID: 0}
  m_PrefabInstance: {fileID: 0}
  m_PrefabAsset: {fileID: 0}
  m_GameObject: {fileID: 230348567}
  m_Enabled: 1
--- !u!124 &230348569
Behaviour:
  m_ObjectHideFlags: 0
  m_CorrespondingSourceObject: {fileID: 0}
  m_PrefabInstance: {fileID: 0}
  m_PrefabAsset: {fileID: 0}
  m_GameObject: {fileID: 230348567}
  m_Enabled: 1
--- !u!20 &230348571
Camera:
  m_ObjectHideFlags: 0
  m_CorrespondingSourceObject: {fileID: 0}
  m_PrefabInstance: {fileID: 0}
  m_PrefabAsset: {fileID: 0}
  m_GameObject: {fileID: 230348567}
  m_Enabled: 1
  serializedVersion: 2
  m_ClearFlags: 1
  m_BackGroundColor: {r: 0.19215687, g: 0.3019608, b: 0.4745098, a: 0}
  m_projectionMatrixMode: 1
  m_GateFitMode: 2
  m_FOVAxisMode: 0
  m_SensorSize: {x: 36, y: 24}
  m_LensShift: {x: 0, y: 0}
  m_FocalLength: 50
  m_NormalizedViewPortRect:
    serializedVersion: 2
    x: 0
    y: 0
    width: 1
    height: 1
  near clip plane: 0.3
  far clip plane: 1000
  field of view: 60
  orthographic: 0
  orthographic size: 5
  m_Depth: -1
  m_CullingMask:
    serializedVersion: 2
    m_Bits: 4294967295
  m_RenderingPath: -1
  m_TargetTexture: {fileID: 0}
  m_TargetDisplay: 0
  m_TargetEye: 3
  m_HDR: 1
  m_AllowMSAA: 1
  m_AllowDynamicResolution: 0
  m_ForceIntoRT: 0
  m_OcclusionCulling: 1
  m_StereoConvergence: 10
  m_StereoSeparation: 0.022
--- !u!4 &230348572
Transform:
  m_ObjectHideFlags: 0
  m_CorrespondingSourceObject: {fileID: 0}
  m_PrefabInstance: {fileID: 0}
  m_PrefabAsset: {fileID: 0}
  m_GameObject: {fileID: 230348567}
  m_LocalRotation: {x: 0.17364816, y: 0, z: 0, w: 0.9848078}
  m_LocalPosition: {x: 0, y: 687, z: -314}
  m_LocalScale: {x: 100, y: 100, z: 100}
  m_Children: []
  m_Father: {fileID: 1412267993}
  m_RootOrder: 1
  m_LocalEulerAnglesHint: {x: 20, y: 0, z: 0}
--- !u!1001 &409001199
PrefabInstance:
  m_ObjectHideFlags: 0
  serializedVersion: 2
  m_Modification:
    m_TransformParent: {fileID: 0}
    m_Modifications:
    - target: {fileID: 7331807820082989652, guid: 0c3cc34220e70554d8b40bb356f84451, type: 3}
      propertyPath: m_RootOrder
      value: 6
      objectReference: {fileID: 0}
    - target: {fileID: 7331807820082989652, guid: 0c3cc34220e70554d8b40bb356f84451, type: 3}
      propertyPath: m_LocalPosition.x
      value: -127.24
      objectReference: {fileID: 0}
    - target: {fileID: 7331807820082989652, guid: 0c3cc34220e70554d8b40bb356f84451, type: 3}
      propertyPath: m_LocalPosition.y
      value: 29.19
      objectReference: {fileID: 0}
    - target: {fileID: 7331807820082989652, guid: 0c3cc34220e70554d8b40bb356f84451, type: 3}
      propertyPath: m_LocalPosition.z
      value: 60.93
      objectReference: {fileID: 0}
    - target: {fileID: 7331807820082989652, guid: 0c3cc34220e70554d8b40bb356f84451, type: 3}
      propertyPath: m_LocalRotation.w
      value: 0
      objectReference: {fileID: 0}
    - target: {fileID: 7331807820082989652, guid: 0c3cc34220e70554d8b40bb356f84451, type: 3}
      propertyPath: m_LocalRotation.x
      value: -0.7071068
      objectReference: {fileID: 0}
    - target: {fileID: 7331807820082989652, guid: 0c3cc34220e70554d8b40bb356f84451, type: 3}
      propertyPath: m_LocalRotation.y
      value: 0.7071068
      objectReference: {fileID: 0}
    - target: {fileID: 7331807820082989652, guid: 0c3cc34220e70554d8b40bb356f84451, type: 3}
      propertyPath: m_LocalRotation.z
      value: 0
      objectReference: {fileID: 0}
    - target: {fileID: 7331807820082989652, guid: 0c3cc34220e70554d8b40bb356f84451, type: 3}
      propertyPath: m_LocalEulerAnglesHint.x
      value: -180
      objectReference: {fileID: 0}
    - target: {fileID: 7331807820082989652, guid: 0c3cc34220e70554d8b40bb356f84451, type: 3}
      propertyPath: m_LocalEulerAnglesHint.y
      value: 0
      objectReference: {fileID: 0}
    - target: {fileID: 7331807820082989652, guid: 0c3cc34220e70554d8b40bb356f84451, type: 3}
      propertyPath: m_LocalEulerAnglesHint.z
      value: 90
      objectReference: {fileID: 0}
    - target: {fileID: 7331807820082989653, guid: 0c3cc34220e70554d8b40bb356f84451, type: 3}
      propertyPath: m_Intensity
      value: 0.5
      objectReference: {fileID: 0}
    - target: {fileID: 7331807820082989674, guid: 0c3cc34220e70554d8b40bb356f84451, type: 3}
      propertyPath: m_Name
      value: Spot Light + lamp Left (1)
      objectReference: {fileID: 0}
    m_RemovedComponents: []
  m_SourcePrefab: {fileID: 100100000, guid: 0c3cc34220e70554d8b40bb356f84451, type: 3}
--- !u!1001 &845180596
PrefabInstance:
  m_ObjectHideFlags: 0
  serializedVersion: 2
  m_Modification:
    m_TransformParent: {fileID: 0}
    m_Modifications:
    - target: {fileID: 7331807820082989652, guid: 0c3cc34220e70554d8b40bb356f84451, type: 3}
      propertyPath: m_RootOrder
      value: 5
      objectReference: {fileID: 0}
    - target: {fileID: 7331807820082989652, guid: 0c3cc34220e70554d8b40bb356f84451, type: 3}
      propertyPath: m_LocalPosition.x
      value: -127.24
      objectReference: {fileID: 0}
    - target: {fileID: 7331807820082989652, guid: 0c3cc34220e70554d8b40bb356f84451, type: 3}
      propertyPath: m_LocalPosition.y
      value: 29.19
      objectReference: {fileID: 0}
    - target: {fileID: 7331807820082989652, guid: 0c3cc34220e70554d8b40bb356f84451, type: 3}
      propertyPath: m_LocalPosition.z
      value: -36.65
      objectReference: {fileID: 0}
    - target: {fileID: 7331807820082989652, guid: 0c3cc34220e70554d8b40bb356f84451, type: 3}
      propertyPath: m_LocalRotation.w
      value: 0.7071068
      objectReference: {fileID: 0}
    - target: {fileID: 7331807820082989652, guid: 0c3cc34220e70554d8b40bb356f84451, type: 3}
      propertyPath: m_LocalRotation.x
      value: 0
      objectReference: {fileID: 0}
    - target: {fileID: 7331807820082989652, guid: 0c3cc34220e70554d8b40bb356f84451, type: 3}
      propertyPath: m_LocalRotation.y
      value: 0
      objectReference: {fileID: 0}
    - target: {fileID: 7331807820082989652, guid: 0c3cc34220e70554d8b40bb356f84451, type: 3}
      propertyPath: m_LocalRotation.z
      value: 0.7071068
      objectReference: {fileID: 0}
    - target: {fileID: 7331807820082989652, guid: 0c3cc34220e70554d8b40bb356f84451, type: 3}
      propertyPath: m_LocalEulerAnglesHint.x
      value: 0
      objectReference: {fileID: 0}
    - target: {fileID: 7331807820082989652, guid: 0c3cc34220e70554d8b40bb356f84451, type: 3}
      propertyPath: m_LocalEulerAnglesHint.y
      value: 0
      objectReference: {fileID: 0}
    - target: {fileID: 7331807820082989652, guid: 0c3cc34220e70554d8b40bb356f84451, type: 3}
      propertyPath: m_LocalEulerAnglesHint.z
      value: 90
      objectReference: {fileID: 0}
    - target: {fileID: 7331807820082989653, guid: 0c3cc34220e70554d8b40bb356f84451, type: 3}
      propertyPath: m_Intensity
      value: 0.5
      objectReference: {fileID: 0}
    - target: {fileID: 7331807820082989653, guid: 0c3cc34220e70554d8b40bb356f84451, type: 3}
      propertyPath: m_SpotAngle
      value: 129.43
      objectReference: {fileID: 0}
    - target: {fileID: 7331807820082989674, guid: 0c3cc34220e70554d8b40bb356f84451, type: 3}
      propertyPath: m_Name
      value: Spot Light + lamp Left
      objectReference: {fileID: 0}
    m_RemovedComponents: []
  m_SourcePrefab: {fileID: 100100000, guid: 0c3cc34220e70554d8b40bb356f84451, type: 3}
--- !u!1001 &875896858
PrefabInstance:
  m_ObjectHideFlags: 0
  serializedVersion: 2
  m_Modification:
    m_TransformParent: {fileID: 1412267993}
    m_Modifications:
    - target: {fileID: -8679921383154817045, guid: 1add3641a0cc9e3428e2db72909e08e0, type: 3}
      propertyPath: m_RootOrder
      value: 0
      objectReference: {fileID: 0}
    - target: {fileID: -8679921383154817045, guid: 1add3641a0cc9e3428e2db72909e08e0, type: 3}
      propertyPath: m_LocalScale.x
      value: 1
      objectReference: {fileID: 0}
    - target: {fileID: -8679921383154817045, guid: 1add3641a0cc9e3428e2db72909e08e0, type: 3}
      propertyPath: m_LocalScale.y
      value: 1
      objectReference: {fileID: 0}
    - target: {fileID: -8679921383154817045, guid: 1add3641a0cc9e3428e2db72909e08e0, type: 3}
      propertyPath: m_LocalScale.z
      value: 1
      objectReference: {fileID: 0}
    - target: {fileID: -8679921383154817045, guid: 1add3641a0cc9e3428e2db72909e08e0, type: 3}
      propertyPath: m_LocalPosition.x
      value: 0
      objectReference: {fileID: 0}
    - target: {fileID: -8679921383154817045, guid: 1add3641a0cc9e3428e2db72909e08e0, type: 3}
      propertyPath: m_LocalPosition.y
      value: -1.51
      objectReference: {fileID: 0}
    - target: {fileID: -8679921383154817045, guid: 1add3641a0cc9e3428e2db72909e08e0, type: 3}
      propertyPath: m_LocalPosition.z
      value: 0
      objectReference: {fileID: 0}
    - target: {fileID: -8679921383154817045, guid: 1add3641a0cc9e3428e2db72909e08e0, type: 3}
      propertyPath: m_LocalRotation.w
      value: 1
      objectReference: {fileID: 0}
    - target: {fileID: -8679921383154817045, guid: 1add3641a0cc9e3428e2db72909e08e0, type: 3}
      propertyPath: m_LocalRotation.x
      value: -0
      objectReference: {fileID: 0}
    - target: {fileID: -8679921383154817045, guid: 1add3641a0cc9e3428e2db72909e08e0, type: 3}
      propertyPath: m_LocalRotation.y
      value: -0
      objectReference: {fileID: 0}
    - target: {fileID: -8679921383154817045, guid: 1add3641a0cc9e3428e2db72909e08e0, type: 3}
      propertyPath: m_LocalRotation.z
      value: -0
      objectReference: {fileID: 0}
    - target: {fileID: -8679921383154817045, guid: 1add3641a0cc9e3428e2db72909e08e0, type: 3}
      propertyPath: m_LocalEulerAnglesHint.x
      value: 0
      objectReference: {fileID: 0}
    - target: {fileID: -8679921383154817045, guid: 1add3641a0cc9e3428e2db72909e08e0, type: 3}
      propertyPath: m_LocalEulerAnglesHint.y
      value: 0
      objectReference: {fileID: 0}
    - target: {fileID: -8679921383154817045, guid: 1add3641a0cc9e3428e2db72909e08e0, type: 3}
      propertyPath: m_LocalEulerAnglesHint.z
      value: 0
      objectReference: {fileID: 0}
    - target: {fileID: -8516964782088047044, guid: 1add3641a0cc9e3428e2db72909e08e0, type: 3}
      propertyPath: m_Materials.Array.data[0]
      value: 
      objectReference: {fileID: 2100000, guid: 58d24c1919a66284d866628b2e0d976f, type: 2}
    - target: {fileID: -5688390824425778294, guid: 1add3641a0cc9e3428e2db72909e08e0, type: 3}
      propertyPath: m_Materials.Array.data[0]
      value: 
      objectReference: {fileID: 2100000, guid: 58d24c1919a66284d866628b2e0d976f, type: 2}
    - target: {fileID: -5688390824425778294, guid: 1add3641a0cc9e3428e2db72909e08e0, type: 3}
      propertyPath: m_Materials.Array.data[1]
      value: 
      objectReference: {fileID: 2100000, guid: 58d24c1919a66284d866628b2e0d976f, type: 2}
    - target: {fileID: -4683669308469848369, guid: 1add3641a0cc9e3428e2db72909e08e0, type: 3}
      propertyPath: m_Materials.Array.data[0]
      value: 
      objectReference: {fileID: 2100000, guid: 58d24c1919a66284d866628b2e0d976f, type: 2}
    - target: {fileID: -2581677607450351497, guid: 1add3641a0cc9e3428e2db72909e08e0, type: 3}
      propertyPath: m_Materials.Array.data[0]
      value: 
      objectReference: {fileID: 2100000, guid: 58d24c1919a66284d866628b2e0d976f, type: 2}
    - target: {fileID: -2581677607450351497, guid: 1add3641a0cc9e3428e2db72909e08e0, type: 3}
      propertyPath: m_Materials.Array.data[1]
      value: 
      objectReference: {fileID: 2100000, guid: 58d24c1919a66284d866628b2e0d976f, type: 2}
    - target: {fileID: 919132149155446097, guid: 1add3641a0cc9e3428e2db72909e08e0, type: 3}
      propertyPath: m_Name
      value: Anime_character
      objectReference: {fileID: 0}
    - target: {fileID: 4872263653411019301, guid: 1add3641a0cc9e3428e2db72909e08e0, type: 3}
      propertyPath: m_Materials.Array.data[0]
      value: 
      objectReference: {fileID: 2100000, guid: 58d24c1919a66284d866628b2e0d976f, type: 2}
    - target: {fileID: 4872263653411019301, guid: 1add3641a0cc9e3428e2db72909e08e0, type: 3}
      propertyPath: m_Materials.Array.data[1]
      value: 
      objectReference: {fileID: 2100000, guid: 58d24c1919a66284d866628b2e0d976f, type: 2}
    - target: {fileID: 9201477522604402537, guid: 1add3641a0cc9e3428e2db72909e08e0, type: 3}
      propertyPath: m_Materials.Array.data[0]
      value: 
      objectReference: {fileID: 2100000, guid: 58d24c1919a66284d866628b2e0d976f, type: 2}
    m_RemovedComponents: []
  m_SourcePrefab: {fileID: 100100000, guid: 1add3641a0cc9e3428e2db72909e08e0, type: 3}
--- !u!1 &1028680266
GameObject:
  m_ObjectHideFlags: 0
  m_CorrespondingSourceObject: {fileID: 0}
  m_PrefabInstance: {fileID: 0}
  m_PrefabAsset: {fileID: 0}
  serializedVersion: 6
  m_Component:
  - component: {fileID: 1028680268}
  - component: {fileID: 1028680267}
  m_Layer: 0
  m_Name: Directional Light
  m_TagString: Untagged
  m_Icon: {fileID: 0}
  m_NavMeshLayer: 0
  m_StaticEditorFlags: 0
  m_IsActive: 1
--- !u!108 &1028680267
Light:
  m_ObjectHideFlags: 0
  m_CorrespondingSourceObject: {fileID: 0}
  m_PrefabInstance: {fileID: 0}
  m_PrefabAsset: {fileID: 0}
  m_GameObject: {fileID: 1028680266}
  m_Enabled: 1
  serializedVersion: 10
  m_Type: 1
  m_Shape: 0
  m_Color: {r: 1, g: 0.95686275, b: 0.8392157, a: 1}
  m_Intensity: 1
  m_Range: 10
  m_SpotAngle: 30
  m_InnerSpotAngle: 21.80208
  m_CookieSize: 10
  m_Shadows:
    m_Type: 2
    m_Resolution: -1
    m_CustomResolution: -1
    m_Strength: 1
    m_Bias: 0.05
    m_NormalBias: 0.4
    m_NearPlane: 0.2
    m_CullingMatrixOverride:
      e00: 1
      e01: 0
      e02: 0
      e03: 0
      e10: 0
      e11: 1
      e12: 0
      e13: 0
      e20: 0
      e21: 0
      e22: 1
      e23: 0
      e30: 0
      e31: 0
      e32: 0
      e33: 1
    m_UseCullingMatrixOverride: 0
  m_Cookie: {fileID: 0}
  m_DrawHalo: 0
  m_Flare: {fileID: 0}
  m_RenderMode: 0
  m_CullingMask:
    serializedVersion: 2
    m_Bits: 4294967295
  m_RenderingLayerMask: 1
  m_Lightmapping: 4
  m_LightShadowCasterMode: 0
  m_AreaSize: {x: 1, y: 1}
  m_BounceIntensity: 1
  m_ColorTemperature: 6570
  m_UseColorTemperature: 0
  m_BoundingSphereOverride: {x: 0, y: 0, z: 0, w: 0}
  m_UseBoundingSphereOverride: 0
  m_UseViewFrustumForShadowCasterCull: 1
  m_ShadowRadius: 0
  m_ShadowAngle: 0
--- !u!4 &1028680268
Transform:
  m_ObjectHideFlags: 0
  m_CorrespondingSourceObject: {fileID: 0}
  m_PrefabInstance: {fileID: 0}
  m_PrefabAsset: {fileID: 0}
  m_GameObject: {fileID: 1028680266}
  m_LocalRotation: {x: 0.40821788, y: -0.23456968, z: 0.10938163, w: 0.8754261}
  m_LocalPosition: {x: 0, y: 3, z: 0}
  m_LocalScale: {x: 1, y: 1, z: 1}
  m_Children: []
  m_Father: {fileID: 0}
  m_RootOrder: 0
  m_LocalEulerAnglesHint: {x: 50, y: -30, z: 0}
--- !u!1 &1102653708 stripped
GameObject:
  m_CorrespondingSourceObject: {fileID: 8922625485571073087, guid: 6b2bdbdd42a310c4fa31cdec419f6f7e, type: 3}
  m_PrefabInstance: {fileID: 6490166954353340378}
  m_PrefabAsset: {fileID: 0}
--- !u!54 &1102653710
Rigidbody:
  m_ObjectHideFlags: 0
  m_CorrespondingSourceObject: {fileID: 0}
  m_PrefabInstance: {fileID: 0}
  m_PrefabAsset: {fileID: 0}
  m_GameObject: {fileID: 1102653708}
  serializedVersion: 2
  m_Mass: 1
  m_Drag: 0
  m_AngularDrag: 0.05
  m_UseGravity: 1
  m_IsKinematic: 0
  m_Interpolate: 0
  m_Constraints: 0
  m_CollisionDetection: 0
--- !u!64 &1102653711
MeshCollider:
  m_ObjectHideFlags: 0
  m_CorrespondingSourceObject: {fileID: 0}
  m_PrefabInstance: {fileID: 0}
  m_PrefabAsset: {fileID: 0}
  m_GameObject: {fileID: 1102653708}
  m_Material: {fileID: 0}
  m_IsTrigger: 0
  m_Enabled: 1
  serializedVersion: 4
  m_Convex: 0
  m_CookingOptions: 30
  m_Mesh: {fileID: 0}
--- !u!65 &1102653712
BoxCollider:
  m_ObjectHideFlags: 0
  m_CorrespondingSourceObject: {fileID: 0}
  m_PrefabInstance: {fileID: 0}
  m_PrefabAsset: {fileID: 0}
  m_GameObject: {fileID: 1102653708}
  m_Material: {fileID: 0}
  m_IsTrigger: 0
  m_Enabled: 1
  serializedVersion: 2
  m_Size: {x: 1, y: 1, z: 1}
  m_Center: {x: 0, y: 0, z: 0}
--- !u!1001 &1172961202
PrefabInstance:
  m_ObjectHideFlags: 0
  serializedVersion: 2
  m_Modification:
    m_TransformParent: {fileID: 0}
    m_Modifications:
    - target: {fileID: 4189572283642988, guid: 564409629eeab7344829a3c4f7862cad, type: 3}
      propertyPath: m_RootOrder
      value: 1
      objectReference: {fileID: 0}
    - target: {fileID: 4189572283642988, guid: 564409629eeab7344829a3c4f7862cad, type: 3}
      propertyPath: m_LocalScale.x
      value: 0.01
      objectReference: {fileID: 0}
    - target: {fileID: 4189572283642988, guid: 564409629eeab7344829a3c4f7862cad, type: 3}
      propertyPath: m_LocalScale.y
      value: 0.01
      objectReference: {fileID: 0}
    - target: {fileID: 4189572283642988, guid: 564409629eeab7344829a3c4f7862cad, type: 3}
      propertyPath: m_LocalScale.z
      value: 0.01
      objectReference: {fileID: 0}
    - target: {fileID: 4189572283642988, guid: 564409629eeab7344829a3c4f7862cad, type: 3}
      propertyPath: m_LocalPosition.x
      value: 0
      objectReference: {fileID: 0}
    - target: {fileID: 4189572283642988, guid: 564409629eeab7344829a3c4f7862cad, type: 3}
      propertyPath: m_LocalPosition.y
      value: 0.0150999995
      objectReference: {fileID: 0}
    - target: {fileID: 4189572283642988, guid: 564409629eeab7344829a3c4f7862cad, type: 3}
      propertyPath: m_LocalPosition.z
      value: 0
      objectReference: {fileID: 0}
    - target: {fileID: 4189572283642988, guid: 564409629eeab7344829a3c4f7862cad, type: 3}
      propertyPath: m_LocalRotation.w
      value: 1
      objectReference: {fileID: 0}
    - target: {fileID: 4189572283642988, guid: 564409629eeab7344829a3c4f7862cad, type: 3}
      propertyPath: m_LocalRotation.x
      value: -0
      objectReference: {fileID: 0}
    - target: {fileID: 4189572283642988, guid: 564409629eeab7344829a3c4f7862cad, type: 3}
      propertyPath: m_LocalRotation.y
      value: -0
      objectReference: {fileID: 0}
    - target: {fileID: 4189572283642988, guid: 564409629eeab7344829a3c4f7862cad, type: 3}
      propertyPath: m_LocalRotation.z
      value: -0
      objectReference: {fileID: 0}
    - target: {fileID: 114898301995512108, guid: 564409629eeab7344829a3c4f7862cad, type: 3}
      propertyPath: moveSpeed
      value: 0.02
      objectReference: {fileID: 0}
    m_RemovedComponents: []
  m_SourcePrefab: {fileID: 100100000, guid: 564409629eeab7344829a3c4f7862cad, type: 3}
--- !u!4 &1412267993 stripped
Transform:
  m_CorrespondingSourceObject: {fileID: 4189572283642988, guid: 564409629eeab7344829a3c4f7862cad, type: 3}
  m_PrefabInstance: {fileID: 1172961202}
  m_PrefabAsset: {fileID: 0}
--- !u!1001 &6490166954353340378
PrefabInstance:
  m_ObjectHideFlags: 0
  serializedVersion: 2
  m_Modification:
    m_TransformParent: {fileID: 0}
    m_Modifications:
    - target: {fileID: 3708472932277053785, guid: 6b2bdbdd42a310c4fa31cdec419f6f7e, type: 3}
      propertyPath: m_RootOrder
      value: 3
      objectReference: {fileID: 0}
    - target: {fileID: 3708472932277053785, guid: 6b2bdbdd42a310c4fa31cdec419f6f7e, type: 3}
      propertyPath: m_LocalPosition.x
      value: -156.45276
      objectReference: {fileID: 0}
    - target: {fileID: 3708472932277053785, guid: 6b2bdbdd42a310c4fa31cdec419f6f7e, type: 3}
      propertyPath: m_LocalPosition.y
      value: 23.5812
      objectReference: {fileID: 0}
    - target: {fileID: 3708472932277053785, guid: 6b2bdbdd42a310c4fa31cdec419f6f7e, type: 3}
      propertyPath: m_LocalPosition.z
      value: 8.7280445
      objectReference: {fileID: 0}
    - target: {fileID: 3708472932277053785, guid: 6b2bdbdd42a310c4fa31cdec419f6f7e, type: 3}
      propertyPath: m_LocalRotation.w
      value: 1
      objectReference: {fileID: 0}
    - target: {fileID: 3708472932277053785, guid: 6b2bdbdd42a310c4fa31cdec419f6f7e, type: 3}
      propertyPath: m_LocalRotation.x
      value: 0
      objectReference: {fileID: 0}
    - target: {fileID: 3708472932277053785, guid: 6b2bdbdd42a310c4fa31cdec419f6f7e, type: 3}
      propertyPath: m_LocalRotation.y
      value: 0
      objectReference: {fileID: 0}
    - target: {fileID: 3708472932277053785, guid: 6b2bdbdd42a310c4fa31cdec419f6f7e, type: 3}
      propertyPath: m_LocalRotation.z
      value: 0
      objectReference: {fileID: 0}
    - target: {fileID: 3708472932277053785, guid: 6b2bdbdd42a310c4fa31cdec419f6f7e, type: 3}
      propertyPath: m_LocalEulerAnglesHint.x
      value: 0
      objectReference: {fileID: 0}
    - target: {fileID: 3708472932277053785, guid: 6b2bdbdd42a310c4fa31cdec419f6f7e, type: 3}
      propertyPath: m_LocalEulerAnglesHint.y
      value: 0
      objectReference: {fileID: 0}
    - target: {fileID: 3708472932277053785, guid: 6b2bdbdd42a310c4fa31cdec419f6f7e, type: 3}
      propertyPath: m_LocalEulerAnglesHint.z
      value: 0
      objectReference: {fileID: 0}
    - target: {fileID: 6490166952624706815, guid: 6b2bdbdd42a310c4fa31cdec419f6f7e, type: 3}
      propertyPath: m_Materials.Array.data[0]
      value: 
      objectReference: {fileID: 2100000, guid: 72fcbaa54ecc21448ab704fb7a49ee68, type: 2}
    - target: {fileID: 6490166952836641901, guid: 6b2bdbdd42a310c4fa31cdec419f6f7e, type: 3}
      propertyPath: m_Materials.Array.data[0]
      value: 
      objectReference: {fileID: 2100000, guid: 72fcbaa54ecc21448ab704fb7a49ee68, type: 2}
    - target: {fileID: 6490166952896381910, guid: 6b2bdbdd42a310c4fa31cdec419f6f7e, type: 3}
      propertyPath: m_Materials.Array.data[0]
      value: 
      objectReference: {fileID: 2100000, guid: 72fcbaa54ecc21448ab704fb7a49ee68, type: 2}
    - target: {fileID: 6490166953058504606, guid: 6b2bdbdd42a310c4fa31cdec419f6f7e, type: 3}
      propertyPath: m_Materials.Array.data[0]
      value: 
      objectReference: {fileID: 2100000, guid: 72fcbaa54ecc21448ab704fb7a49ee68, type: 2}
    - target: {fileID: 6490166953294695515, guid: 6b2bdbdd42a310c4fa31cdec419f6f7e, type: 3}
      propertyPath: m_Materials.Array.data[0]
      value: 
      objectReference: {fileID: 2100000, guid: 72fcbaa54ecc21448ab704fb7a49ee68, type: 2}
    - target: {fileID: 6490166953309980318, guid: 6b2bdbdd42a310c4fa31cdec419f6f7e, type: 3}
      propertyPath: m_Materials.Array.data[0]
      value: 
      objectReference: {fileID: 2100000, guid: 72fcbaa54ecc21448ab704fb7a49ee68, type: 2}
    - target: {fileID: 6490166954028887995, guid: 6b2bdbdd42a310c4fa31cdec419f6f7e, type: 3}
      propertyPath: m_Materials.Array.data[0]
      value: 
      objectReference: {fileID: 2100000, guid: 72fcbaa54ecc21448ab704fb7a49ee68, type: 2}
    - target: {fileID: 6490166954589221099, guid: 6b2bdbdd42a310c4fa31cdec419f6f7e, type: 3}
      propertyPath: m_Materials.Array.data[0]
      value: 
      objectReference: {fileID: 2100000, guid: 72fcbaa54ecc21448ab704fb7a49ee68, type: 2}
    - target: {fileID: 6490166954639418695, guid: 6b2bdbdd42a310c4fa31cdec419f6f7e, type: 3}
      propertyPath: m_Materials.Array.data[0]
      value: 
      objectReference: {fileID: 2100000, guid: 72fcbaa54ecc21448ab704fb7a49ee68, type: 2}
    - target: {fileID: 6490166954718920290, guid: 6b2bdbdd42a310c4fa31cdec419f6f7e, type: 3}
      propertyPath: m_Materials.Array.data[0]
      value: 
      objectReference: {fileID: 2100000, guid: 72fcbaa54ecc21448ab704fb7a49ee68, type: 2}
    - target: {fileID: 6490166954758199792, guid: 6b2bdbdd42a310c4fa31cdec419f6f7e, type: 3}
      propertyPath: m_Materials.Array.data[0]
      value: 
      objectReference: {fileID: 2100000, guid: 72fcbaa54ecc21448ab704fb7a49ee68, type: 2}
    - target: {fileID: 6490166954768589951, guid: 6b2bdbdd42a310c4fa31cdec419f6f7e, type: 3}
      propertyPath: m_Materials.Array.data[0]
      value: 
      objectReference: {fileID: 2100000, guid: 72fcbaa54ecc21448ab704fb7a49ee68, type: 2}
    - target: {fileID: 8922625485571073087, guid: 6b2bdbdd42a310c4fa31cdec419f6f7e, type: 3}
      propertyPath: m_Name
      value: House
      objectReference: {fileID: 0}
    m_RemovedComponents: []
  m_SourcePrefab: {fileID: 100100000, guid: 6b2bdbdd42a310c4fa31cdec419f6f7e, type: 3}
--- !u!1001 &6540965799826940671
PrefabInstance:
  m_ObjectHideFlags: 0
  serializedVersion: 2
  m_Modification:
    m_TransformParent: {fileID: 0}
    m_Modifications:
    - target: {fileID: 6540965800067107384, guid: bd6d53ffae0162444b39a25ef3cd4adc, type: 3}
      propertyPath: m_RootOrder
      value: 2
      objectReference: {fileID: 0}
    - target: {fileID: 6540965800067107384, guid: bd6d53ffae0162444b39a25ef3cd4adc, type: 3}
      propertyPath: m_LocalPosition.x
      value: 0
      objectReference: {fileID: 0}
    - target: {fileID: 6540965800067107384, guid: bd6d53ffae0162444b39a25ef3cd4adc, type: 3}
      propertyPath: m_LocalPosition.y
      value: 0
      objectReference: {fileID: 0}
    - target: {fileID: 6540965800067107384, guid: bd6d53ffae0162444b39a25ef3cd4adc, type: 3}
      propertyPath: m_LocalPosition.z
      value: 12
      objectReference: {fileID: 0}
    - target: {fileID: 6540965800067107384, guid: bd6d53ffae0162444b39a25ef3cd4adc, type: 3}
      propertyPath: m_LocalRotation.w
      value: 1
      objectReference: {fileID: 0}
    - target: {fileID: 6540965800067107384, guid: bd6d53ffae0162444b39a25ef3cd4adc, type: 3}
      propertyPath: m_LocalRotation.x
      value: 0
      objectReference: {fileID: 0}
    - target: {fileID: 6540965800067107384, guid: bd6d53ffae0162444b39a25ef3cd4adc, type: 3}
      propertyPath: m_LocalRotation.y
      value: 0
      objectReference: {fileID: 0}
    - target: {fileID: 6540965800067107384, guid: bd6d53ffae0162444b39a25ef3cd4adc, type: 3}
      propertyPath: m_LocalRotation.z
      value: 0
      objectReference: {fileID: 0}
    - target: {fileID: 6540965800067107384, guid: bd6d53ffae0162444b39a25ef3cd4adc, type: 3}
      propertyPath: m_LocalEulerAnglesHint.x
      value: 0
      objectReference: {fileID: 0}
    - target: {fileID: 6540965800067107384, guid: bd6d53ffae0162444b39a25ef3cd4adc, type: 3}
      propertyPath: m_LocalEulerAnglesHint.y
      value: 0
      objectReference: {fileID: 0}
    - target: {fileID: 6540965800067107384, guid: bd6d53ffae0162444b39a25ef3cd4adc, type: 3}
      propertyPath: m_LocalEulerAnglesHint.z
      value: 0
      objectReference: {fileID: 0}
    - target: {fileID: 6540965800067107388, guid: bd6d53ffae0162444b39a25ef3cd4adc, type: 3}
      propertyPath: m_Name
      value: Colored Ground
      objectReference: {fileID: 0}
    m_RemovedComponents: []
  m_SourcePrefab: {fileID: 100100000, guid: bd6d53ffae0162444b39a25ef3cd4adc, type: 3}
--- !u!1001 &7230986500488498543
PrefabInstance:
  m_ObjectHideFlags: 0
  serializedVersion: 2
  m_Modification:
    m_TransformParent: {fileID: 0}
    m_Modifications:
    - target: {fileID: 4377506036587117088, guid: 92cae170ff4011e41a28834d3f585a87, type: 3}
      propertyPath: m_LocalPosition.y
      value: 8.45
      objectReference: {fileID: 0}
    - target: {fileID: 4836921523070345380, guid: 92cae170ff4011e41a28834d3f585a87, type: 3}
      propertyPath: m_RootOrder
      value: 7
      objectReference: {fileID: 0}
    - target: {fileID: 4836921523070345380, guid: 92cae170ff4011e41a28834d3f585a87, type: 3}
      propertyPath: m_LocalPosition.x
      value: -81.15
      objectReference: {fileID: 0}
    - target: {fileID: 4836921523070345380, guid: 92cae170ff4011e41a28834d3f585a87, type: 3}
      propertyPath: m_LocalPosition.y
      value: 11.21
      objectReference: {fileID: 0}
    - target: {fileID: 4836921523070345380, guid: 92cae170ff4011e41a28834d3f585a87, type: 3}
      propertyPath: m_LocalPosition.z
      value: 18.718
      objectReference: {fileID: 0}
    - target: {fileID: 4836921523070345380, guid: 92cae170ff4011e41a28834d3f585a87, type: 3}
      propertyPath: m_LocalRotation.w
      value: 1
      objectReference: {fileID: 0}
    - target: {fileID: 4836921523070345380, guid: 92cae170ff4011e41a28834d3f585a87, type: 3}
      propertyPath: m_LocalRotation.x
      value: 0
      objectReference: {fileID: 0}
    - target: {fileID: 4836921523070345380, guid: 92cae170ff4011e41a28834d3f585a87, type: 3}
      propertyPath: m_LocalRotation.y
      value: 0
      objectReference: {fileID: 0}
    - target: {fileID: 4836921523070345380, guid: 92cae170ff4011e41a28834d3f585a87, type: 3}
      propertyPath: m_LocalRotation.z
      value: 0
      objectReference: {fileID: 0}
    - target: {fileID: 4836921523070345380, guid: 92cae170ff4011e41a28834d3f585a87, type: 3}
      propertyPath: m_LocalEulerAnglesHint.x
      value: 0
      objectReference: {fileID: 0}
    - target: {fileID: 4836921523070345380, guid: 92cae170ff4011e41a28834d3f585a87, type: 3}
      propertyPath: m_LocalEulerAnglesHint.y
      value: 0
      objectReference: {fileID: 0}
    - target: {fileID: 4836921523070345380, guid: 92cae170ff4011e41a28834d3f585a87, type: 3}
      propertyPath: m_LocalEulerAnglesHint.z
      value: 0
      objectReference: {fileID: 0}
    - target: {fileID: 6119760397869588879, guid: 92cae170ff4011e41a28834d3f585a87, type: 3}
      propertyPath: m_Name
      value: Doors
      objectReference: {fileID: 0}
    - target: {fileID: 7230986501153466737, guid: 92cae170ff4011e41a28834d3f585a87, type: 3}
      propertyPath: m_Materials.Array.data[0]
      value: 
      objectReference: {fileID: 2100000, guid: 960396901ca0aa644b544dbac531517d, type: 2}
    - target: {fileID: 7230986501194447800, guid: 92cae170ff4011e41a28834d3f585a87, type: 3}
      propertyPath: m_Materials.Array.data[0]
      value: 
      objectReference: {fileID: 2100000, guid: 960396901ca0aa644b544dbac531517d, type: 2}
    m_RemovedComponents: []
  m_SourcePrefab: {fileID: 100100000, guid: 92cae170ff4011e41a28834d3f585a87, type: 3}
--- !u!1001 &7331807818898633141
PrefabInstance:
  m_ObjectHideFlags: 0
  serializedVersion: 2
  m_Modification:
    m_TransformParent: {fileID: 0}
    m_Modifications:
    - target: {fileID: 7331807820082989652, guid: 0c3cc34220e70554d8b40bb356f84451, type: 3}
      propertyPath: m_RootOrder
      value: 4
      objectReference: {fileID: 0}
    - target: {fileID: 7331807820082989652, guid: 0c3cc34220e70554d8b40bb356f84451, type: 3}
      propertyPath: m_LocalPosition.x
      value: -128
      objectReference: {fileID: 0}
    - target: {fileID: 7331807820082989652, guid: 0c3cc34220e70554d8b40bb356f84451, type: 3}
      propertyPath: m_LocalPosition.y
      value: 47.59
      objectReference: {fileID: 0}
    - target: {fileID: 7331807820082989652, guid: 0c3cc34220e70554d8b40bb356f84451, type: 3}
      propertyPath: m_LocalPosition.z
      value: 12.9348
      objectReference: {fileID: 0}
    - target: {fileID: 7331807820082989652, guid: 0c3cc34220e70554d8b40bb356f84451, type: 3}
      propertyPath: m_LocalRotation.w
      value: 0.7071068
      objectReference: {fileID: 0}
    - target: {fileID: 7331807820082989652, guid: 0c3cc34220e70554d8b40bb356f84451, type: 3}
      propertyPath: m_LocalRotation.x
      value: 0.7071068
      objectReference: {fileID: 0}
    - target: {fileID: 7331807820082989652, guid: 0c3cc34220e70554d8b40bb356f84451, type: 3}
      propertyPath: m_LocalRotation.y
      value: 0
      objectReference: {fileID: 0}
    - target: {fileID: 7331807820082989652, guid: 0c3cc34220e70554d8b40bb356f84451, type: 3}
      propertyPath: m_LocalRotation.z
      value: 0
      objectReference: {fileID: 0}
    - target: {fileID: 7331807820082989652, guid: 0c3cc34220e70554d8b40bb356f84451, type: 3}
      propertyPath: m_LocalEulerAnglesHint.x
      value: 90
      objectReference: {fileID: 0}
    - target: {fileID: 7331807820082989652, guid: 0c3cc34220e70554d8b40bb356f84451, type: 3}
      propertyPath: m_LocalEulerAnglesHint.y
      value: 0
      objectReference: {fileID: 0}
    - target: {fileID: 7331807820082989652, guid: 0c3cc34220e70554d8b40bb356f84451, type: 3}
      propertyPath: m_LocalEulerAnglesHint.z
      value: 0
      objectReference: {fileID: 0}
    - target: {fileID: 7331807820082989653, guid: 0c3cc34220e70554d8b40bb356f84451, type: 3}
      propertyPath: m_Intensity
      value: 0.5
      objectReference: {fileID: 0}
    - target: {fileID: 7331807820082989674, guid: 0c3cc34220e70554d8b40bb356f84451, type: 3}
      propertyPath: m_Name
      value: Spot Light + lamp
      objectReference: {fileID: 0}
    m_RemovedComponents: []
  m_SourcePrefab: {fileID: 100100000, guid: 0c3cc34220e70554d8b40bb356f84451, type: 3}
